<svg width="17" height="242" viewBox="0 0 17 242" fill="none" xmlns="http://www.w3.org/2000/svg">
<g clip-path="url(#clip0_1_233-424460)">
<path d="M1.21436 233.466C1.21436 237.332 4.34836 240.466 8.21436 240.466C12.0803 240.466 15.2144 237.332 15.2144 233.466C15.2144 229.6 12.0803 226.466 8.21436 226.466C4.34836 226.466 1.21436 229.6 1.21436 233.466Z" stroke="white" stroke-width="1.30637"/>
<path d="M1.21436 156.547C1.21436 160.413 4.34836 163.547 8.21436 163.547C12.0803 163.547 15.2144 160.413 15.2144 156.547C15.2144 152.681 12.0803 149.547 8.21436 149.547C4.34836 149.547 1.21436 152.681 1.21436 156.547Z" stroke="white" stroke-width="1.30637"/>
<path d="M8.41798 8.37708L8.41797 149.409" stroke="white" stroke-width="1.95955"/>
<path d="M1.62158 7.78027C1.62158 11.6463 4.75559 14.7803 8.62158 14.7803C12.4876 14.7803 15.6216 11.6463 15.6216 7.78027C15.6216 3.91428 12.4876 0.78027 8.62158 0.78027C4.75559 0.78027 1.62158 3.91428 1.62158 7.78027Z" fill="white" stroke="white" stroke-width="1.30637"/>
</g>
<defs>
<clipPath id="clip0_1_233-424460">
<rect width="17" height="242" fill="white"/>
</clipPath>
</defs>
</svg>
